<svg version="1.1"
	 id="Layer_1" xmlns:v="http://schemas.microsoft.com/visio/2003/SVGExtensions/" xmlns:ev="http://www.w3.org/2001/xml-events"
	 xmlns="http://www.w3.org/2000/svg" xmlns:xlink="http://www.w3.org/1999/xlink" x="0px" y="0px" width="72.56px" height="42.34px"
	 viewBox="18.244 18.235 72.56 42.34" enable-background="new 18.244 18.235 72.56 42.34" xml:space="preserve">

			<linearGradient id="anim"  x1="0%" y1="100%">
      <stop offset="0%" stop-color="red" stop-opacity="1">
      		<animate attributeName="stop-color" 
      			values="red;rgba(255,0,0,0.3);red" dur="50ms" repeatCount="indefinite"/>
		</stop>
    </linearGradient>
        
        
<g id="shape1-1" transform="translate(18.24,-25.6101)">
	<g>
		<g>
			<path fill="url(#anim)"   d="M71.564,53.865c0.55,0,1,0.45,1,1v7.64c0,0.55-0.45,1-1,1h-6.5c-0.55,0-1,0.45-1,1v8.68
				c0,0.55-0.45,1-1,1h-6.5c-0.55,0-1,0.45-1,1v0.26c0,0.55-0.45,1-1,1h-7.07c-0.55,0-1,0.45-1,1v0.36c0,0.55-0.45,1-1,1h-18.41
				c-0.55,0-1,0.45-1,1v5.38c0,0.55-0.45,1-1,1h-13.31c-0.55,0-1-0.45-1-1v-1.97c0-0.55-0.318-1.318-0.707-1.707l-1.996-1.996
				c-0.389-0.389-1.157-0.707-1.707-0.707h-5.36c-0.55,0-1-0.45-1-1v-18.97c0-0.55,0.45-1,1-1h2.53c0.55,0,1.318-0.318,1.707-0.707
				l7.276-7.276c0.389-0.389,0.707-1.157,0.707-1.707v-0.46c0-0.55,0.45-1,1-1h8.59c0.55,0,1-0.45,1-1v-0.84c0-0.55,0.45-1,1-1
				h17.27c0.55,0,1,0.45,1,1v8.02c0,0.55,0.45,1,1,1H71.564z" >
					
			</path>
		</g>
	</g>
</g>
</svg>
